C. elegans Plate Experiment | Portfolio Data Science for Biology
…
## [1] "character"

print(class(plate_experiment_data$compConcentration))

## [1] "character"

print(class(plate_experiment_data$expType))

## [1] "character"

# Check if data is correctly imported. 
plate_experiment_data %>% 
  dplyr::select(RawData, compName, compConcentration, expType) 

## # A tibble: 360 × 4
##    RawData compName                   compConcentration expType   
##      <dbl> <chr>                      <chr>             <chr>     
##  1      44 2,6-diisopropylnaphthalene 4.99              experiment
##  2      37 2,6-diisopropylnaphthalene 4.99              experiment
##  3      45 2,6-diisopropylnaphthalene 4.99              experiment
##  4      47 2,6-diisopropylnaphthalene 4.99              experiment
##  5      41 2,6-diisopropylnaphthalene 4.99              experiment
##  6      35 2,6-diisopropylnaphthalene 4.99              experiment
##  7      41 2,6-diisopropylnaphthalene 4.99              experiment
##  8      36 2,6-diisopropylnaphthalene 4.99              experiment
##  9      40 2,6-diisopropylnaphthalene 4.99              experiment
## 10      38 2,6-diisopropylnaphthalene 4.99              experiment
## # ℹ 350 more rows
…
