Identification of Antibiotic Resistance Genes in Bacteria | Portfolio Data Science for Biology
…
##  [1] "Country"       "N...2"         "%R...3"        "(95% CI)...4"  "N...5"        
##  [6] "%R...6"        "(95% CI)...7"  "N...8"         "%R...9"        "(95% CI)...10"
## [11] "N...11"        "%R...12"       "(95% CI)...13"

##  [1] "Country"       "N...2"         "%R...3"        "(95% CI)...4"  "N...5"        
##  [6] "%R...6"        "(95% CI)...7"  "N...8"         "%R...9"        "(95% CI)...10"
## [11] "N...11"        "%R...12"       "(95% CI)...13"

# View the combined dataset
print(e_coli)

## # A tibble: 600 × 8
##    Country year      N     R CI    bacteria         antibioticum     SIR  
##    <chr>   <chr> <dbl> <dbl> <chr> <chr>            <chr>            <chr>
##  1 Sweden  2012    230  28.3 23-35 Escherichia coli aminopenicillins S    
##  2 Sweden  2013    452  34.1 30-39 Escherichia coli aminopenicillins I    
##  3 Sweden  2014     NA  NA   <NA>  Escherichia coli aminopenicillins <NA> 
##  4 Sweden  2015    396  34.1 29-39 Escherichia coli aminopenicillins I    
##  5 Finland 2012   2090  39.7 38-42 Escherichia coli aminopenicillins I    
##  6 Finland 2013   2124  37.3 35-39 Escherichia coli aminopenicillins I    
##  7 Finland 2014   2365  34.7 33-37 Escherichia coli aminopenicillins I    
##  8 Finland 2015   2472  36   34-38 Escherichia coli aminopenicillins I    
##  9 Iceland 2012    131  44.3 36-53 Escherichia coli aminopenicillins I    
## 10 Iceland 2013    121  46.3 37-56 Escherichia coli aminopenicillins I    
## # ℹ 590 more rows
…
##  [1] "Country"       "N...2"         "%R...3"        "(95% CI)...4"  "N...5"        
##  [6] "%R...6"        "(95% CI)...7"  "N...8"         "%R...9"        "(95% CI)...10"
## [11] "N...11"        "%R...12"       "(95% CI)...13"

##  [1] "Country"       "N...2"         "%R...3"        "(95% CI)...4"  "N...5"        
##  [6] "%R...6"        "(95% CI)...7"  "N...8"         "%R...9"        "(95% CI)...10"
## [11] "N...11"        "%R...12"       "(95% CI)...13"

# View the combined dataset
print(k_pneumoniae)

## # A tibble: 480 × 8
##    Country year      N     R CI    bacteria              antibioticum     SIR  
##    <chr>   <chr> <dbl> <dbl> <chr> <chr>                 <chr>            <chr>
##  1 Iceland 2012     14   7.1 0-34  Klebsiella pneumoniae fluoroquinolones S    
##  2 Iceland 2013     28   0   0-12  Klebsiella pneumoniae fluoroquinolones S    
##  3 Iceland 2014     28   3.6 0-18  Klebsiella pneumoniae fluoroquinolones S    
##  4 Iceland 2015     35   2.9 0-15  Klebsiella pneumoniae fluoroquinolones S    
##  5 Finland 2012    536   2.1 1-4   Klebsiella pneumoniae fluoroquinolones S    
##  6 Finland 2013    537   2.6 1-4   Klebsiella pneumoniae fluoroquinolones S    
##  7 Finland 2014    581   4.6 3-7   Klebsiella pneumoniae fluoroquinolones S    
##  8 Finland 2015    658   3.3 2-5   Klebsiella pneumoniae fluoroquinolones S    
##  9 Sweden  2012    977   3.7 3-5   Klebsiella pneumoniae fluoroquinolones S    
## 10 Sweden  2013   1270   3.9 3-5   Klebsiella pneumoniae fluoroquinolones S    
## # ℹ 470 more rows
…
##  [1] "Country"       "N...2"         "%R...3"        "(95% CI)...4"  "N...5"        
##  [6] "%R...6"        "(95% CI)...7"  "N...8"         "%R...9"        "(95% CI)...10"
## [11] "N...11"        "%R...12"       "(95% CI)...13"
##  [1] "Cyprus" "52"     "15.4"   "(7-28)" "47"     "4.3"    "(1-15)" "42"     "9.5"   
## [10] "(3-23)" "43"     "0"      "(0-8)"

##  [1] "Country"       "N...2"         "%R...3"        "(95% CI)...4"  "N...5"        
##  [6] "%R...6"        "(95% CI)...7"  "N...8"         "%R...9"        "(95% CI)...10"
## [11] "N...11"        "%R...12"       "(95% CI)...13"

# View the combined dataset
print(p_aeruginosa)

## # A tibble: 476 × 8
##    Country year      N     R CI    bacteria               antibioticum     SIR  
##    <chr>   <chr> <dbl> <dbl> <chr> <chr>                  <chr>            <chr>
##  1 Estonia 2012     32  15.6 5-33  Pseudomonas aeruginosa fluoroquinolones S    
##  2 Estonia 2013     20  25   9-49  Pseudomonas aeruginosa fluoroquinolones S    
##  3 Estonia 2014     39  10.3 3-24  Pseudomonas aeruginosa fluoroquinolones S    
##  4 Estonia 2015     18   0   0-19  Pseudomonas aeruginosa fluoroquinolones S    
##  5 Sweden  2012    357   6.7 4-10  Pseudomonas aeruginosa fluoroquinolones S    
##  6 Sweden  2013    531   6   4-8   Pseudomonas aeruginosa fluoroquinolones S    
##  7 Sweden  2014    338   7.7 5-11  Pseudomonas aeruginosa fluoroquinolones S    
##  8 Sweden  2015    382   4.7 3-7   Pseudomonas aeruginosa fluoroquinolones S    
##  9 Denmark 2012    389   4.1 2-7   Pseudomonas aeruginosa fluoroquinolones S    
## 10 Denmark 2013    408   3.2 2-5   Pseudomonas aeruginosa fluoroquinolones S    
## # ℹ 466 more rows
…
##  [1] "Country"       "N...2"         "%R...3"        "(95% CI)...4"  "N...5"        
##  [6] "%R...6"        "(95% CI)...7"  "N...8"         "%R...9"        "(95% CI)...10"
## [11] "N...11"        "%R...12"       "(95% CI)...13"

##  [1] "Country"       "N...2"         "%R...3"        "(95% CI)...4"  "N...5"        
##  [6] "%R...6"        "(95% CI)...7"  "N...8"         "%R...9"        "(95% CI)...10"
## [11] "N...11"        "%R...12"       "(95% CI)...13"

# View the combined dataset
print(acinetobacter_spp)

## # A tibble: 360 × 8
##    Country year      N     R CI    bacteria          antibioticum     SIR  
##    <chr>   <chr> <dbl> <dbl> <chr> <chr>             <chr>            <chr>
##  1 Belgium 2012     NA  NA   <NA>  Acinetobacter spp fluoroquinolones <NA> 
##  2 Belgium 2013      3  NA   <NA>  Acinetobacter spp fluoroquinolones <NA> 
##  3 Belgium 2014      4  NA   <NA>  Acinetobacter spp fluoroquinolones <NA> 
##  4 Belgium 2015     26   0   0-13  Acinetobacter spp fluoroquinolones S    
##  5 Finland 2012     NA  NA   <NA>  Acinetobacter spp fluoroquinolones <NA> 
##  6 Finland 2013     36   2.8 0-15  Acinetobacter spp fluoroquinolones S    
##  7 Finland 2014     31   6.5 1-21  Acinetobacter spp fluoroquinolones S    
##  8 Finland 2015     43   2.3 0-12  Acinetobacter spp fluoroquinolones S    
##  9 Sweden  2012     NA  NA   <NA>  Acinetobacter spp fluoroquinolones <NA> 
## 10 Sweden  2013     74   5.4 1-13  Acinetobacter spp fluoroquinolones S    
## # ℹ 350 more rows
…
##  [1] "Country"       "N...2"         "%R...3"        "(95% CI)...4"  "N...5"        
##  [6] "%R...6"        "(95% CI)...7"  "N...8"         "%R...9"        "(95% CI)...10"
## [11] "N...11"        "%R...12"       "(95% CI)...13"

##  [1] "Country"       "N...2"         "%R...3"        "(95% CI)...4"  "N...5"        
##  [6] "%R...6"        "(95% CI)...7"  "N...8"         "%R...9"        "(95% CI)...10"
## [11] "N...11"        "%R...12"       "(95% CI)...13"

# View the combined dataset
print(s_pneumoniae)

## # A tibble: 232 × 8
##    Country     year      N     R CI    bacteria                 antibioticum SIR  
##    <chr>       <chr> <dbl> <dbl> <chr> <chr>                    <chr>        <chr>
##  1 Belgium     2012   1658   1.5 1-2   Streptococcus pneumoniae penicillin   S    
##  2 Belgium     2013   1536   1.7 1-2   Streptococcus pneumoniae penicillin   S    
##  3 Belgium     2014   1110   1.3 1-2   Streptococcus pneumoniae penicillin   S    
##  4 Belgium     2015   1361   0.6 1-2   Streptococcus pneumoniae penicillin   S    
##  5 Netherlands 2012   1063   1.5 1-2   Streptococcus pneumoniae penicillin   S    
##  6 Netherlands 2013   1032   1.1 1-2   Streptococcus pneumoniae penicillin   S    
##  7 Netherlands 2014   1139   2.1 1-3   Streptococcus pneumoniae penicillin   S    
##  8 Netherlands 2015   1163   1.8 1-2   Streptococcus pneumoniae penicillin   S    
##  9 Estonia     2012     53   0   0-7   Streptococcus pneumoniae penicillin   S    
## 10 Estonia     2013     78   1.3 0-7   Streptococcus pneumoniae penicillin   S    
## # ℹ 222 more rows
…
# Combine data from multiple sheet of the Excel files into a single dataset
s_aureus <- bind_rows(
  tidy_data_function(file_path = file_path_s_aureus, sheet_number = 1, 
                     bacteria = bacteria_s_aureus, 
                     antibioticum = "meticillin")
)

##  [1] "Country"       "N...2"         "%R...3"        "(95% CI)...4"  "N...5"        
##  [6] "%R...6"        "(95% CI)...7"  "N...8"         "%R...9"        "(95% CI)...10"
## [11] "N...11"        "%R...12"       "(95% CI)...13"

# View the combined dataset
print(s_aureus)

## # A tibble: 120 × 8
##    Country year      N     R CI    bacteria              antibioticum SIR  
##    <chr>   <chr> <dbl> <dbl> <chr> <chr>                 <chr>        <chr>
##  1 Iceland 2012     58   1.7 0-9   Staphylococcus aureus meticillin   S    
##  2 Iceland 2013     69   0   0-5   Staphylococcus aureus meticillin   S    
##  3 Iceland 2014     61   3.3 0-11  Staphylococcus aureus meticillin   S    
##  4 Iceland 2015     88   0   0-4   Staphylococcus aureus meticillin   S    
##  5 Sweden  2012   3263   0.7 0-1   Staphylococcus aureus meticillin   S    
##  6 Sweden  2013   4099   1   1-1   Staphylococcus aureus meticillin   S    
##  7 Sweden  2014   2745   1   1-1   Staphylococcus aureus meticillin   S    
##  8 Sweden  2015   3124   0.8 1-1   Staphylococcus aureus meticillin   S    
##  9 Norway  2012   1430   1.3 1-2   Staphylococcus aureus meticillin   S    
## 10 Norway  2013   1473   0.7 0-1   Staphylococcus aureus meticillin   S    
## # ℹ 110 more rows
…
##  [1] "Country"       "N...2"         "%R...3"        "(95% CI)...4"  "N...5"        
##  [6] "%R...6"        "(95% CI)...7"  "N...8"         "%R...9"        "(95% CI)...10"
## [11] "N...11"        "%R...12"       "(95% CI)...13"

##  [1] "Country"       "N...2"         "%R...3"        "(95% CI)...4"  "N...5"        
##  [6] "%R...6"        "(95% CI)...7"  "N...8"         "%R...9"        "(95% CI)...10"
## [11] "N...11"        "%R...12"       "(95% CI)...13"

# View the combined dataset
print(e_faecalis)

## # A tibble: 240 × 8
##    Country year      N     R CI    bacteria              antibioticum SIR  
##    <chr>   <chr> <dbl> <dbl> <chr> <chr>                 <chr>        <chr>
##  1 Cyprus  2012     77  10.4 5-19  Enterococcus faecalis gentamicin   S    
##  2 Cyprus  2013     67  26.9 17-39 Enterococcus faecalis gentamicin   S    
##  3 Cyprus  2014     80  17.5 10-28 Enterococcus faecalis gentamicin   S    
##  4 Cyprus  2015     58   8.6 3-19  Enterococcus faecalis gentamicin   S    
##  5 Norway  2012    123  30.1 22-39 Enterococcus faecalis gentamicin   I    
##  6 Norway  2013    168  26.8 20-34 Enterococcus faecalis gentamicin   S    
##  7 Norway  2014    270  20.7 16-26 Enterococcus faecalis gentamicin   S    
##  8 Norway  2015    163   9.8 6-15  Enterococcus faecalis gentamicin   S    
##  9 France  2012   1528  16.7 15-19 Enterococcus faecalis gentamicin   S    
## 10 France  2013   1639  14.7 13-17 Enterococcus faecalis gentamicin   S    
## # ℹ 230 more rows
…
# Combine the datasets of every bacteria 
combined_data <- bind_rows(
  e_coli, 
  k_pneumoniae, 
  p_aeruginosa, 
  acinetobacter_spp, 
  s_pneumoniae, 
  s_aureus, 
  e_faecalis
)

# View the combined dataset
print(combined_data)

## # A tibble: 2,508 × 8
##    Country year      N     R CI    bacteria         antibioticum     SIR  
##    <chr>   <chr> <dbl> <dbl> <chr> <chr>            <chr>            <chr>
##  1 Sweden  2012    230  28.3 23-35 Escherichia coli aminopenicillins S    
##  2 Sweden  2013    452  34.1 30-39 Escherichia coli aminopenicillins I    
##  3 Sweden  2014     NA  NA   <NA>  Escherichia coli aminopenicillins <NA> 
##  4 Sweden  2015    396  34.1 29-39 Escherichia coli aminopenicillins I    
##  5 Finland 2012   2090  39.7 38-42 Escherichia coli aminopenicillins I    
##  6 Finland 2013   2124  37.3 35-39 Escherichia coli aminopenicillins I    
##  7 Finland 2014   2365  34.7 33-37 Escherichia coli aminopenicillins I    
##  8 Finland 2015   2472  36   34-38 Escherichia coli aminopenicillins I    
##  9 Iceland 2012    131  44.3 36-53 Escherichia coli aminopenicillins I    
## 10 Iceland 2013    121  46.3 37-56 Escherichia coli aminopenicillins I    
## # ℹ 2,498 more rows
…
# Define the function to create a wide format
create_wide_format <- function(data) {
  data %>%
    distinct(Country, year, bacteria, antibioticum, .keep_all = TRUE) %>%
    pivot_wider(
      names_from = antibioticum,  # Pivot antibiotics into columns
      values_from = SIR,          # Fill columns with SIR values
      values_fill = list(SIR = NA) # Fill missing SIR values with NA
    )
}

wide_data <- create_wide_format(combined_data)
print(wide_data)

## # A tibble: 2,411 × 17
##    Country year      N     R CI    bacteria         aminopenicillins fluoroquinolones
##    <chr>   <chr> <dbl> <dbl> <chr> <chr>            <chr>            <chr>           
##  1 Sweden  2012    230  28.3 23-35 Escherichia coli S                <NA>            
##  2 Sweden  2013    452  34.1 30-39 Escherichia coli I                <NA>            
##  3 Sweden  2014     NA  NA   <NA>  Escherichia coli <NA>             <NA>            
##  4 Sweden  2015    396  34.1 29-39 Escherichia coli I                <NA>            
##  5 Finland 2012   2090  39.7 38-42 Escherichia coli I                <NA>            
##  6 Finland 2013   2124  37.3 35-39 Escherichia coli I                <NA>            
##  7 Finland 2014   2365  34.7 33-37 Escherichia coli I                <NA>            
##  8 Finland 2015   2472  36   34-38 Escherichia coli I                <NA>            
##  9 Iceland 2012    131  44.3 36-53 Escherichia coli I                <NA>            
## 10 Iceland 2013    121  46.3 37-56 Escherichia coli I                <NA>            
## # ℹ 2,401 more rows
## # ℹ 9 more variables: cephalosporins <chr>, aminoglycosides <chr>, carbapenems <chr>,
## #   ceftazidime <chr>, penicillin <chr>, macrolides <chr>, meticillin <chr>,
## #   gentamicin <chr>, vancomycin <chr>

wide_data$bacteria <- as.mo(wide_data$bacteria, info = TRUE)

wide_data <- wide_data %>%
  mutate_if(is_sir_eligible, as.sir)

wide_data

## # A tibble: 2,411 × 17
##    Country year      N     R CI    bacteria     aminopenicillins fluoroquinolones
##    <chr>   <chr> <dbl> <dbl> <chr> <mo>         <sir>            <sir>           
##  1 Sweden  2012    230  28.3 23-35 B_ESCHR_COLI S                NA              
##  2 Sweden  2013    452  34.1 30-39 B_ESCHR_COLI I                NA              
##  3 Sweden  2014     NA  NA   <NA>  B_ESCHR_COLI NA               NA              
##  4 Sweden  2015    396  34.1 29-39 B_ESCHR_COLI I                NA              
##  5 Finland 2012   2090  39.7 38-42 B_ESCHR_COLI I                NA              
##  6 Finland 2013   2124  37.3 35-39 B_ESCHR_COLI I                NA              
##  7 Finland 2014   2365  34.7 33-37 B_ESCHR_COLI I                NA              
##  8 Finland 2015   2472  36   34-38 B_ESCHR_COLI I                NA              
##  9 Iceland 2012    131  44.3 36-53 B_ESCHR_COLI I                NA              
## 10 Iceland 2013    121  46.3 37-56 B_ESCHR_COLI I                NA              
## # ℹ 2,401 more rows
## # ℹ 9 more variables: cephalosporins <sir>, aminoglycosides <sir>, carbapenems <sir>,
## #   ceftazidime <sir>, penicillin <sir>, macrolides <sir>, meticillin <sir>,
## #   gentamicin <sir>, vancomycin <sir>
…
