Parameterized Report of COVID-19 data from ECDC | Portfolio Data Science for Biology
…
## [1] "23/10/2022" "22/10/2022" "21/10/2022" "20/10/2022" "19/10/2022" "18/10/2022"

str(covid_data$dateRep)

##  chr [1:28729] "23/10/2022" "22/10/2022" "21/10/2022" "20/10/2022" "19/10/2022" ...

# Convert dateRep to Date format
covid_data <- covid_data %>%
  mutate(
    dateRep = dmy(dateRep)  # Convert date column to Date format
  )

covid_data

## # A tibble: 28,729 × 11
##    dateRep      day month  year cases deaths countriesAndTerritories geoId
##    <date>     <dbl> <dbl> <dbl> <dbl>  <dbl> <chr>                   <chr>
##  1 2022-10-23    23    10  2022  3557      0 Austria                 AT   
##  2 2022-10-22    22    10  2022  5494      4 Austria                 AT   
##  3 2022-10-21    21    10  2022  7776      4 Austria                 AT   
##  4 2022-10-20    20    10  2022  8221      6 Austria                 AT   
##  5 2022-10-19    19    10  2022 10007      8 Austria                 AT   
##  6 2022-10-18    18    10  2022 13204      7 Austria                 AT   
##  7 2022-10-17    17    10  2022  9964      8 Austria                 AT   
##  8 2022-10-16    16    10  2022  6606     12 Austria                 AT   
##  9 2022-10-15    15    10  2022  8818      6 Austria                 AT   
## 10 2022-10-14    14    10  2022 11751     10 Austria                 AT   
## # ℹ 28,719 more rows
## # ℹ 3 more variables: countryterritoryCode <chr>, popData2020 <dbl>, continentExp <chr>

# Filter data based on parameters
filtered_data <- covid_data %>%
  filter(
    countriesAndTerritories == params$country,
    year(dateRep) == params$year,
    month(dateRep) %in% params$months
  )

# Display the filtered data
print(filtered_data)

## # A tibble: 181 × 11
##    dateRep      day month  year cases deaths countriesAndTerritories geoId
##    <date>     <dbl> <dbl> <dbl> <dbl>  <dbl> <chr>                   <chr>
##  1 2021-06-30    30     6  2021   776     24 Italy                   IT   
##  2 2021-06-29    29     6  2021   677     42 Italy                   IT   
##  3 2021-06-28    28     6  2021   387     28 Italy                   IT   
##  4 2021-06-27    27     6  2021   780     14 Italy                   IT   
##  5 2021-06-26    26     6  2021   838     40 Italy                   IT   
##  6 2021-06-25    25     6  2021   751     56 Italy                   IT   
##  7 2021-06-24    24     6  2021   266     28 Italy                   IT   
##  8 2021-06-23    23     6  2021  1140     12 Italy                   IT   
##  9 2021-06-22    22     6  2021   834     31 Italy                   IT   
## 10 2021-06-21    21     6  2021   484     21 Italy                   IT   
## # ℹ 171 more rows
## # ℹ 3 more variables: countryterritoryCode <chr>, popData2020 <dbl>, continentExp <chr>
…
